{
  "database": {
    "rules": "database.rules.json"
  },
  "hosting": {
    "public": "dist/itauangular",
    "ignore": [
      "firebase.json",
      "**/.*",
      "**/node_modules/**"
    ]

  }
}
